{
    "name": "Lasika.InteractSystem",
    "references": [
        "Lasika.Controllers",
        "Lasika.DialogSystem",
        "Lasika.InputSystem"
    ],
    "optionalUnityReferences": [],
    "includePlatforms": [],
    "excludePlatforms": [],
    "allowUnsafeCode": false
}